<svg xmlns="http://www.w3.org/2000/svg" xmlns:xlink="http://www.w3.org/1999/xlink" viewBox="0 0 48 48">
  <defs>
    <style>
      .cls-1 {
        clip-path: url(#clip-timeline-icon);
      }

      .cls-2, .cls-5 {
        fill: #fff;
      }

      .cls-2 {
        stroke: #ff4365;
        stroke-width: 2px;
      }

      .cls-3 {
        stroke: none;
      }

      .cls-4 {
        fill: none;
      }
    </style>
    <clipPath id="clip-timeline-icon">
      <rect width="48" height="48"/>
    </clipPath>
  </defs>
  <g id="timeline-icon" class="cls-1">
    <rect class="cls-5" width="48" height="48"/>
    <g id="Group_1" data-name="Group 1">
      <g id="Rectangle_1" data-name="Rectangle 1" class="cls-2" transform="translate(0 15)">
        <rect class="cls-3" width="48" height="18"/>
        <rect class="cls-4" x="1" y="1" width="46" height="16"/>
      </g>
      <g id="Rectangle_2" data-name="Rectangle 2" class="cls-2" transform="translate(5 2)">
        <rect class="cls-3" width="39" height="11"/>
        <rect class="cls-4" x="1" y="1" width="37" height="9"/>
      </g>
      <g id="Rectangle_3" data-name="Rectangle 3" class="cls-2" transform="translate(5 35)">
        <rect class="cls-3" width="39" height="11"/>
        <rect class="cls-4" x="1" y="1" width="37" height="9"/>
      </g>
    </g>
  </g>
</svg>
