<?xml version="1.0" encoding="iso-8859-1"?>
<!-- Generator: Adobe Illustrator 19.0.0, SVG Export Plug-In . SVG Version: 6.00 Build 0)  -->
<svg xmlns="http://www.w3.org/2000/svg" xmlns:xlink="http://www.w3.org/1999/xlink" version="1.1" id="Capa_1" x="0px" y="0px" viewBox="0 0 512 512" style="enable-background:new 0 0 512 512;" xml:space="preserve" width="512px" height="512px">
<g>
	<g>
		<path d="M499.999,442.081l-122.88-122.88c-6.861-6.861-15.585-10.609-24.535-11.571c22.897-31.908,36.536-70.881,36.536-113.07    C389.12,87.286,301.834,0,194.56,0S0,87.286,0,194.56s87.286,194.56,194.56,194.56c42.189,0,81.162-13.64,113.07-36.536    c0.983,9.236,4.895,17.859,11.571,24.535l122.88,122.88C449.823,507.74,460.104,512,471.04,512s21.217-4.26,28.959-12.001    C507.74,492.278,512,481.976,512,471.04S507.74,449.802,499.999,442.081z M194.56,348.16c-84.705,0-153.6-68.895-153.6-153.6    s68.895-153.6,153.6-153.6s153.6,68.895,153.6,153.6S279.265,348.16,194.56,348.16z" fill="#FF4365"/>
	</g>
</g>
<g>
</g>
<g>
</g>
<g>
</g>
<g>
</g>
<g>
</g>
<g>
</g>
<g>
</g>
<g>
</g>
<g>
</g>
<g>
</g>
<g>
</g>
<g>
</g>
<g>
</g>
<g>
</g>
<g>
</g>
</svg>
